{
    "development": {
        "env": "development",
        "app_name": "affinidi-dev-server",
        "app_desc": "This is the Nodejs Development server component for the Affinidi.",
        "log_level": "info",
        "port": 5100,
        "jwtsecretOrKey": "affinidiDevil",
        "jwtexpiry": "5d",
        "database": "wallsgator",
        "dbUserName" : "sa",
        "dbPassWord" : "Wil*1234#$",
        "dbHost" : "sql-dev-india.thewitslab.com",
        "dbDialect" : "mssql"
    }
}